…
Hum... Os deputados do PR apresentaram valor médio de quase R$800 por reembolso pago. Aliás, dentro do grupo de sete partidos considerado, os deputados do PR são os que tem o reembolso médio mais alto desde 2009. Os deputados do PT foram os que pediram reembolsos médios de menor valor em 2017. Como eles são em número maior e apresentam mais pedidos, o valor total de todos os reembolsos acaba ficando mais alto do que os outros partidos.

Mas as análises que podem ser realizadas não ficam apenas em comparar partidos. É possível comparar deputados e os lugares onde eles gastaram o nosso dinheiro. Podemos ver, por exemplo, todas as vezes em que um deputado fez uma refeição em algum restaurante e gastou mais do que a média dos outros deputados. Um bom restaurante para fazermos isto é o McDonald's, pois ele está presente no Brasil inteiro e muita gente tem ideia de quanto custa uma refeição neste local.

Veja como o pacote <a href="http://github.com/mnunes/reembolsos" rel="noopener" target="_blank"><code>reembolsos</code></a> permite que vejamos quais foram os gastos mais altos da história da câmara nesta lanchonete:


<pre class="line-numbers"><code class="language-r">camara %>%
  select(year, supplier, congressperson_name, party, total_net_value) %>%
  filter(grepl("donald", supplier, ignore.case=TRUE)) %>%
  arrange(desc(total_net_value))

# A tibble: 643 x 5
    year supplier                           congressperson_name party total_net_value
   <int> <fct>                              <fct>               <fct>           <dbl>
 1  2009 MC DONALDS                         CELSO RUSSOMANNO    PRB              84.0
 2  2014 MC DONALDS                         FRANCISCO FLORIANO  DEM              80.0
 3  2014 MC DONALDS                         EURICO JÚNIOR       PV               73.0
 4  2015 MC DONALDS                         CELSO RUSSOMANNO    PRB              71.5
 5  2009 MC DONALD'S -LMO COMERCIO DE ALIM… PAULO ROBERTO PERE… PTB              67.2
 6  2015 MC DONALDS                         CÉSAR MESSIAS       PSB              64.5
 7  2013 MCDONALDS COMÉRCIO DE ALIMENTOS L… MAGDA MOFATTO       PR               64.0
 8  2016 MC DONALDS                         CÉSAR MESSIAS       PSB              60.0
 9  2010 MC DONALDS                         JOSÉ MENTOR         PT               57.0
10  2015 MC DONALD'S COM DE ALIM LTDA       POMPEO DE MATTOS    PDT              57.0
# ... with 633 more rows
…
A média de pedidos de reembolso no McDonald's, entre 2009 e 2017, sem considerar a inflação, foi de R$23,10, com desvio padrão de R$12,30. Ou seja, este gasto específico de R$84,00 está 4,94 desvios padrão acima da média dos gastos dos outros deputados federais neste restaurante. Pra quem é leigo no assunto, isto significa que é um gasto <strong>muito alto</strong>. Talvez seja interessante investigar os detalhes desta compra pra ver que não houve algum cadastro errado no valor informado e reembolsado para o deputado. Deputado este que não foi o único a gastar muito no McDonald's:

<pre class="line-numbers"><code class="language-r">
camara %>%
  select(year, supplier, congressperson_name, party, total_net_value) %>%
  filter(grepl("donald", supplier, ignore.case=TRUE)) %>%
  arrange(desc(total_net_value)) %>%
  mutate(z=scale(total_net_value))

# A tibble: 643 x 6
    year supplier                      congressperson_na… party total_net_value     z
   <int> <fct>                         <fct>              <fct>           <dbl> <dbl>
 1  2009 MC DONALDS                    CELSO RUSSOMANNO   PRB              84.0  4.94
 2  2014 MC DONALDS                    FRANCISCO FLORIANO DEM              80.0  4.61
 3  2014 MC DONALDS                    EURICO JÚNIOR      PV               73.0  4.05
 4  2015 MC DONALDS                    CELSO RUSSOMANNO   PRB              71.5  3.92
 5  2009 MC DONALD'S -LMO COMERCIO DE… PAULO ROBERTO PER… PTB              67.2  3.58
 6  2015 MC DONALDS                    CÉSAR MESSIAS      PSB              64.5  3.36
 7  2013 MCDONALDS COMÉRCIO DE ALIMEN… MAGDA MOFATTO      PR               64.0  3.32
 8  2016 MC DONALDS                    CÉSAR MESSIAS      PSB              60.0  2.99
 9  2010 MC DONALDS                    JOSÉ MENTOR        PT               57.0  2.75
10  2015 MC DONALD'S COM DE ALIM LTDA  POMPEO DE MATTOS   PDT              57.0  2.75
# ... with 633 more rows
…
