…
das 1000 cervejas com mais avaliações no <a href="http://www.brejas.com.br/">Brejas</a>. 


## As Melhores Cervejas e Estilos

Podemos começar a análise com as 10 cervejas com avaliação geral mais alta:

<pre class="line-numbers"><code class="language-r"># cervejas melhor avaliadas

dados %>% 
  select(Nome, Geral, Votos) %>%
  arrange(desc(Geral))

# A tibble: 1,000 x 3
   Nome                                     Geral Votos
   <fct>                                    <dbl> <dbl>
 1 Westvleteren Abt 12                       4.70   106  
 2 Westvleteren Extra 8                      4.60    47
 3 Ola Dubh Special Reserve 40               4.60    33
 4 Founders KBS (Kentucky Breakfast Stout)   4.60    37
 5 Trappistes Rochefort 10                   4.50   213  
 6 Biertruppe Vintage Nº 1                   4.50    29
 7 Thomas Hardy's Ale                        4.50    41
 8 Gouden Carolus Cuvée van de Keizer Blauw  4.40    77
 9 St. Bernardus Abt 12                      4.40   140  
10 Founders Backwoods Bastard                4.40    32
# ... with 990 more rows</code></pre>

Ao que tudo indica, a cerveja <a href="http://www.brejas.com.br/cerveja/belgica/westvleteren-abt-12">Westvleteren Abt 12</a> é a melhor cerveja avaliada pelos usuários do Brejas. Com 106 votos, o que é quantidade razoável de avaliações, ela ficou com nota 4.7, de um máximo de 5. Nada mal.

Mas este tipo de informação é fácil de obter. O próprio Brejas nos informa isto. Podemos fazer coisas mais interessantes com este conjunto de dados. Por exemplo, qual será o estilo com maiores média e mediana entre os seus rótulos?



<pre class="line-numbers"><code class="language-r">dados %>% 
  select(Estilo, Nome, Geral) %>%
  group_by(Estilo) %>%
  summarise(Media=mean(Geral, na.rm=T), Mediana=median(Geral, na.rm=T)) %>%
  arrange(desc(Media))
# A tibble: 86 x 3
Estilo                             Media Mediana
<chr>                              <dbl>   <dbl>
1  Belgian Quadrupel / ABT          4.22    4.10
2  Bière de Champagne / Bière Brut  4.17    4.20
3  Belgian Dark Strong Ale          4.05    4.05
4  Wood Aged Beer                   4.05    4.20
5  Imperial / Strong Porter         4.03    4.00
6  Russian Imperial Stout           4.03    4.10
7  Belgian Specialty Ale            3.92    3.95
8  Black IPA                        3.91    3.90
9  Imperial / Double IPA            3.91    4.00
10 Oatmeal Stout                    3.90    3.90
# ... with 76 more rows</code></pre>
…
